^D:\CHOCODICO\SCENE_WORLD\CLASSES\APPDELEGATE.CPP
/c /I"C:\Cocos\frameworks\cocos2d-x-3.5\cocos\audio\include" /I"C:\Cocos\frameworks\cocos2d-x-3.5\external" /I"C:\Cocos\frameworks\cocos2d-x-3.5\external\chipmunk\include\chipmunk" /I"C:\Cocos\frameworks\cocos2d-x-3.5\extensions" /I..\Classes /I.. /I"C:\Cocos\frameworks\cocos2d-x-3.5\cocos\2d\..\..\cocos\editor-support" /I"C:\Cocos\frameworks\cocos2d-x-3.5\cocos\2d\..\..\cocos" /I"C:\Cocos\frameworks\cocos2d-x-3.5\cocos\2d\..\..\cocos\platform" /I"C:\Cocos\frameworks\cocos2d-x-3.5\cocos\2d\..\..\cocos\platform\desktop" /I"C:\Cocos\frameworks\cocos2d-x-3.5\cocos\2d\..\..\external\glfw3\include\win32" /I"C:\Cocos\frameworks\cocos2d-x-3.5\cocos\2d\..\..\external\win32-specific\gles\include\OGLES" /Zi /nologo /W3 /WX- /O2 /Oi /Oy- /GL /D WIN32 /D NDEBUG /D _WINDOWS /D _USE_MATH_DEFINES /D GL_GLEXT_PROTOTYPES /D CC_ENABLE_CHIPMUNK_INTEGRATION=1 /D _CRT_SECURE_NO_WARNINGS /D _SCL_SECURE_NO_WARNINGS /D COCOS2D_DEBUG=1 /D _VARIADIC_MAX=10 /D _UNICODE /D UNICODE /Gm- /EHsc /MD /GS /Gy /fp:precise /Zc:wchar_t /Zc:forScope /Fo"RELEASE.WIN32\\" /Fd"RELEASE.WIN32\VC120.PDB" /Gd /TP /wd4267 /wd4251 /wd4244 /analyze- D:\CHOCODICO\SCENE_WORLD\CLASSES\APPDELEGATE.CPP
^D:\CHOCODICO\SCENE_WORLD\CLASSES\BINARY.CPP
/c /I"C:\Cocos\frameworks\cocos2d-x-3.5\cocos\audio\include" /I"C:\Cocos\frameworks\cocos2d-x-3.5\external" /I"C:\Cocos\frameworks\cocos2d-x-3.5\external\chipmunk\include\chipmunk" /I"C:\Cocos\frameworks\cocos2d-x-3.5\extensions" /I..\Classes /I.. /I"C:\Cocos\frameworks\cocos2d-x-3.5\cocos\2d\..\..\cocos\editor-support" /I"C:\Cocos\frameworks\cocos2d-x-3.5\cocos\2d\..\..\cocos" /I"C:\Cocos\frameworks\cocos2d-x-3.5\cocos\2d\..\..\cocos\platform" /I"C:\Cocos\frameworks\cocos2d-x-3.5\cocos\2d\..\..\cocos\platform\desktop" /I"C:\Cocos\frameworks\cocos2d-x-3.5\cocos\2d\..\..\external\glfw3\include\win32" /I"C:\Cocos\frameworks\cocos2d-x-3.5\cocos\2d\..\..\external\win32-specific\gles\include\OGLES" /Zi /nologo /W3 /WX- /O2 /Oi /Oy- /GL /D WIN32 /D NDEBUG /D _WINDOWS /D _USE_MATH_DEFINES /D GL_GLEXT_PROTOTYPES /D CC_ENABLE_CHIPMUNK_INTEGRATION=1 /D _CRT_SECURE_NO_WARNINGS /D _SCL_SECURE_NO_WARNINGS /D COCOS2D_DEBUG=1 /D _VARIADIC_MAX=10 /D _UNICODE /D UNICODE /Gm- /EHsc /MD /GS /Gy /fp:precise /Zc:wchar_t /Zc:forScope /Fo"RELEASE.WIN32\\" /Fd"RELEASE.WIN32\VC120.PDB" /Gd /TP /wd4267 /wd4251 /wd4244 /analyze- D:\CHOCODICO\SCENE_WORLD\CLASSES\BINARY.CPP
^D:\CHOCODICO\SCENE_WORLD\CLASSES\COMMONLIB.CPP
/c /I"C:\Cocos\frameworks\cocos2d-x-3.5\cocos\audio\include" /I"C:\Cocos\frameworks\cocos2d-x-3.5\external" /I"C:\Cocos\frameworks\cocos2d-x-3.5\external\chipmunk\include\chipmunk" /I"C:\Cocos\frameworks\cocos2d-x-3.5\extensions" /I..\Classes /I.. /I"C:\Cocos\frameworks\cocos2d-x-3.5\cocos\2d\..\..\cocos\editor-support" /I"C:\Cocos\frameworks\cocos2d-x-3.5\cocos\2d\..\..\cocos" /I"C:\Cocos\frameworks\cocos2d-x-3.5\cocos\2d\..\..\cocos\platform" /I"C:\Cocos\frameworks\cocos2d-x-3.5\cocos\2d\..\..\cocos\platform\desktop" /I"C:\Cocos\frameworks\cocos2d-x-3.5\cocos\2d\..\..\external\glfw3\include\win32" /I"C:\Cocos\frameworks\cocos2d-x-3.5\cocos\2d\..\..\external\win32-specific\gles\include\OGLES" /Zi /nologo /W3 /WX- /O2 /Oi /Oy- /GL /D WIN32 /D NDEBUG /D _WINDOWS /D _USE_MATH_DEFINES /D GL_GLEXT_PROTOTYPES /D CC_ENABLE_CHIPMUNK_INTEGRATION=1 /D _CRT_SECURE_NO_WARNINGS /D _SCL_SECURE_NO_WARNINGS /D COCOS2D_DEBUG=1 /D _VARIADIC_MAX=10 /D _UNICODE /D UNICODE /Gm- /EHsc /MD /GS /Gy /fp:precise /Zc:wchar_t /Zc:forScope /Fo"RELEASE.WIN32\\" /Fd"RELEASE.WIN32\VC120.PDB" /Gd /TP /wd4267 /wd4251 /wd4244 /analyze- D:\CHOCODICO\SCENE_WORLD\CLASSES\COMMONLIB.CPP
^D:\CHOCODICO\SCENE_WORLD\CLASSES\PROBLEM_2_Q1.CPP
/c /I"C:\Cocos\frameworks\cocos2d-x-3.5\cocos\audio\include" /I"C:\Cocos\frameworks\cocos2d-x-3.5\external" /I"C:\Cocos\frameworks\cocos2d-x-3.5\external\chipmunk\include\chipmunk" /I"C:\Cocos\frameworks\cocos2d-x-3.5\extensions" /I..\Classes /I.. /I"C:\Cocos\frameworks\cocos2d-x-3.5\cocos\2d\..\..\cocos\editor-support" /I"C:\Cocos\frameworks\cocos2d-x-3.5\cocos\2d\..\..\cocos" /I"C:\Cocos\frameworks\cocos2d-x-3.5\cocos\2d\..\..\cocos\platform" /I"C:\Cocos\frameworks\cocos2d-x-3.5\cocos\2d\..\..\cocos\platform\desktop" /I"C:\Cocos\frameworks\cocos2d-x-3.5\cocos\2d\..\..\external\glfw3\include\win32" /I"C:\Cocos\frameworks\cocos2d-x-3.5\cocos\2d\..\..\external\win32-specific\gles\include\OGLES" /Zi /nologo /W3 /WX- /O2 /Oi /Oy- /GL /D WIN32 /D NDEBUG /D _WINDOWS /D _USE_MATH_DEFINES /D GL_GLEXT_PROTOTYPES /D CC_ENABLE_CHIPMUNK_INTEGRATION=1 /D _CRT_SECURE_NO_WARNINGS /D _SCL_SECURE_NO_WARNINGS /D COCOS2D_DEBUG=1 /D _VARIADIC_MAX=10 /D _UNICODE /D UNICODE /Gm- /EHsc /MD /GS /Gy /fp:precise /Zc:wchar_t /Zc:forScope /Fo"RELEASE.WIN32\\" /Fd"RELEASE.WIN32\VC120.PDB" /Gd /TP /wd4267 /wd4251 /wd4244 /analyze- D:\CHOCODICO\SCENE_WORLD\CLASSES\PROBLEM_2_Q1.CPP
^D:\CHOCODICO\SCENE_WORLD\CLASSES\SCENEGAME_1_1.CPP
/c /I"C:\Cocos\frameworks\cocos2d-x-3.5\cocos\audio\include" /I"C:\Cocos\frameworks\cocos2d-x-3.5\external" /I"C:\Cocos\frameworks\cocos2d-x-3.5\external\chipmunk\include\chipmunk" /I"C:\Cocos\frameworks\cocos2d-x-3.5\extensions" /I..\Classes /I.. /I"C:\Cocos\frameworks\cocos2d-x-3.5\cocos\2d\..\..\cocos\editor-support" /I"C:\Cocos\frameworks\cocos2d-x-3.5\cocos\2d\..\..\cocos" /I"C:\Cocos\frameworks\cocos2d-x-3.5\cocos\2d\..\..\cocos\platform" /I"C:\Cocos\frameworks\cocos2d-x-3.5\cocos\2d\..\..\cocos\platform\desktop" /I"C:\Cocos\frameworks\cocos2d-x-3.5\cocos\2d\..\..\external\glfw3\include\win32" /I"C:\Cocos\frameworks\cocos2d-x-3.5\cocos\2d\..\..\external\win32-specific\gles\include\OGLES" /Zi /nologo /W3 /WX- /O2 /Oi /Oy- /GL /D WIN32 /D NDEBUG /D _WINDOWS /D _USE_MATH_DEFINES /D GL_GLEXT_PROTOTYPES /D CC_ENABLE_CHIPMUNK_INTEGRATION=1 /D _CRT_SECURE_NO_WARNINGS /D _SCL_SECURE_NO_WARNINGS /D COCOS2D_DEBUG=1 /D _VARIADIC_MAX=10 /D _UNICODE /D UNICODE /Gm- /EHsc /MD /GS /Gy /fp:precise /Zc:wchar_t /Zc:forScope /Fo"RELEASE.WIN32\\" /Fd"RELEASE.WIN32\VC120.PDB" /Gd /TP /wd4267 /wd4251 /wd4244 /analyze- D:\CHOCODICO\SCENE_WORLD\CLASSES\SCENEGAME_1_1.CPP
^D:\CHOCODICO\SCENE_WORLD\CLASSES\SCENEGAME_2_2_2.CPP
/c /I"C:\Cocos\frameworks\cocos2d-x-3.5\cocos\audio\include" /I"C:\Cocos\frameworks\cocos2d-x-3.5\external" /I"C:\Cocos\frameworks\cocos2d-x-3.5\external\chipmunk\include\chipmunk" /I"C:\Cocos\frameworks\cocos2d-x-3.5\extensions" /I..\Classes /I.. /I"C:\Cocos\frameworks\cocos2d-x-3.5\cocos\2d\..\..\cocos\editor-support" /I"C:\Cocos\frameworks\cocos2d-x-3.5\cocos\2d\..\..\cocos" /I"C:\Cocos\frameworks\cocos2d-x-3.5\cocos\2d\..\..\cocos\platform" /I"C:\Cocos\frameworks\cocos2d-x-3.5\cocos\2d\..\..\cocos\platform\desktop" /I"C:\Cocos\frameworks\cocos2d-x-3.5\cocos\2d\..\..\external\glfw3\include\win32" /I"C:\Cocos\frameworks\cocos2d-x-3.5\cocos\2d\..\..\external\win32-specific\gles\include\OGLES" /Zi /nologo /W3 /WX- /O2 /Oi /Oy- /GL /D WIN32 /D NDEBUG /D _WINDOWS /D _USE_MATH_DEFINES /D GL_GLEXT_PROTOTYPES /D CC_ENABLE_CHIPMUNK_INTEGRATION=1 /D _CRT_SECURE_NO_WARNINGS /D _SCL_SECURE_NO_WARNINGS /D COCOS2D_DEBUG=1 /D _VARIADIC_MAX=10 /D _UNICODE /D UNICODE /Gm- /EHsc /MD /GS /Gy /fp:precise /Zc:wchar_t /Zc:forScope /Fo"RELEASE.WIN32\\" /Fd"RELEASE.WIN32\VC120.PDB" /Gd /TP /wd4267 /wd4251 /wd4244 /analyze- D:\CHOCODICO\SCENE_WORLD\CLASSES\SCENEGAME_2_2_2.CPP
^D:\CHOCODICO\SCENE_WORLD\CLASSES\SCENEGAME_3_1_1.CPP
/c /I"C:\Cocos\frameworks\cocos2d-x-3.5\cocos\audio\include" /I"C:\Cocos\frameworks\cocos2d-x-3.5\external" /I"C:\Cocos\frameworks\cocos2d-x-3.5\external\chipmunk\include\chipmunk" /I"C:\Cocos\frameworks\cocos2d-x-3.5\extensions" /I..\Classes /I.. /I"C:\Cocos\frameworks\cocos2d-x-3.5\cocos\2d\..\..\cocos\editor-support" /I"C:\Cocos\frameworks\cocos2d-x-3.5\cocos\2d\..\..\cocos" /I"C:\Cocos\frameworks\cocos2d-x-3.5\cocos\2d\..\..\cocos\platform" /I"C:\Cocos\frameworks\cocos2d-x-3.5\cocos\2d\..\..\cocos\platform\desktop" /I"C:\Cocos\frameworks\cocos2d-x-3.5\cocos\2d\..\..\external\glfw3\include\win32" /I"C:\Cocos\frameworks\cocos2d-x-3.5\cocos\2d\..\..\external\win32-specific\gles\include\OGLES" /Zi /nologo /W3 /WX- /O2 /Oi /Oy- /GL /D WIN32 /D NDEBUG /D _WINDOWS /D _USE_MATH_DEFINES /D GL_GLEXT_PROTOTYPES /D CC_ENABLE_CHIPMUNK_INTEGRATION=1 /D _CRT_SECURE_NO_WARNINGS /D _SCL_SECURE_NO_WARNINGS /D COCOS2D_DEBUG=1 /D _VARIADIC_MAX=10 /D _UNICODE /D UNICODE /Gm- /EHsc /MD /GS /Gy /fp:precise /Zc:wchar_t /Zc:forScope /Fo"RELEASE.WIN32\\" /Fd"RELEASE.WIN32\VC120.PDB" /Gd /TP /wd4267 /wd4251 /wd4244 /analyze- D:\CHOCODICO\SCENE_WORLD\CLASSES\SCENEGAME_3_1_1.CPP
^D:\CHOCODICO\SCENE_WORLD\CLASSES\SCENEGAME_3_2.CPP
/c /I"C:\Cocos\frameworks\cocos2d-x-3.5\cocos\audio\include" /I"C:\Cocos\frameworks\cocos2d-x-3.5\external" /I"C:\Cocos\frameworks\cocos2d-x-3.5\external\chipmunk\include\chipmunk" /I"C:\Cocos\frameworks\cocos2d-x-3.5\extensions" /I..\Classes /I.. /I"C:\Cocos\frameworks\cocos2d-x-3.5\cocos\2d\..\..\cocos\editor-support" /I"C:\Cocos\frameworks\cocos2d-x-3.5\cocos\2d\..\..\cocos" /I"C:\Cocos\frameworks\cocos2d-x-3.5\cocos\2d\..\..\cocos\platform" /I"C:\Cocos\frameworks\cocos2d-x-3.5\cocos\2d\..\..\cocos\platform\desktop" /I"C:\Cocos\frameworks\cocos2d-x-3.5\cocos\2d\..\..\external\glfw3\include\win32" /I"C:\Cocos\frameworks\cocos2d-x-3.5\cocos\2d\..\..\external\win32-specific\gles\include\OGLES" /Zi /nologo /W3 /WX- /O2 /Oi /Oy- /GL /D WIN32 /D NDEBUG /D _WINDOWS /D _USE_MATH_DEFINES /D GL_GLEXT_PROTOTYPES /D CC_ENABLE_CHIPMUNK_INTEGRATION=1 /D _CRT_SECURE_NO_WARNINGS /D _SCL_SECURE_NO_WARNINGS /D COCOS2D_DEBUG=1 /D _VARIADIC_MAX=10 /D _UNICODE /D UNICODE /Gm- /EHsc /MD /GS /Gy /fp:precise /Zc:wchar_t /Zc:forScope /Fo"RELEASE.WIN32\\" /Fd"RELEASE.WIN32\VC120.PDB" /Gd /TP /wd4267 /wd4251 /wd4244 /analyze- D:\CHOCODICO\SCENE_WORLD\CLASSES\SCENEGAME_3_2.CPP
^D:\CHOCODICO\SCENE_WORLD\CLASSES\SCENEGAME_3_3.CPP
/c /I"C:\Cocos\frameworks\cocos2d-x-3.5\cocos\audio\include" /I"C:\Cocos\frameworks\cocos2d-x-3.5\external" /I"C:\Cocos\frameworks\cocos2d-x-3.5\external\chipmunk\include\chipmunk" /I"C:\Cocos\frameworks\cocos2d-x-3.5\extensions" /I..\Classes /I.. /I"C:\Cocos\frameworks\cocos2d-x-3.5\cocos\2d\..\..\cocos\editor-support" /I"C:\Cocos\frameworks\cocos2d-x-3.5\cocos\2d\..\..\cocos" /I"C:\Cocos\frameworks\cocos2d-x-3.5\cocos\2d\..\..\cocos\platform" /I"C:\Cocos\frameworks\cocos2d-x-3.5\cocos\2d\..\..\cocos\platform\desktop" /I"C:\Cocos\frameworks\cocos2d-x-3.5\cocos\2d\..\..\external\glfw3\include\win32" /I"C:\Cocos\frameworks\cocos2d-x-3.5\cocos\2d\..\..\external\win32-specific\gles\include\OGLES" /Zi /nologo /W3 /WX- /O2 /Oi /Oy- /GL /D WIN32 /D NDEBUG /D _WINDOWS /D _USE_MATH_DEFINES /D GL_GLEXT_PROTOTYPES /D CC_ENABLE_CHIPMUNK_INTEGRATION=1 /D _CRT_SECURE_NO_WARNINGS /D _SCL_SECURE_NO_WARNINGS /D COCOS2D_DEBUG=1 /D _VARIADIC_MAX=10 /D _UNICODE /D UNICODE /Gm- /EHsc /MD /GS /Gy /fp:precise /Zc:wchar_t /Zc:forScope /Fo"RELEASE.WIN32\\" /Fd"RELEASE.WIN32\VC120.PDB" /Gd /TP /wd4267 /wd4251 /wd4244 /analyze- D:\CHOCODICO\SCENE_WORLD\CLASSES\SCENEGAME_3_3.CPP
^D:\CHOCODICO\SCENE_WORLD\CLASSES\SCENEPOPGAME_2.CPP
/c /I"C:\Cocos\frameworks\cocos2d-x-3.5\cocos\audio\include" /I"C:\Cocos\frameworks\cocos2d-x-3.5\external" /I"C:\Cocos\frameworks\cocos2d-x-3.5\external\chipmunk\include\chipmunk" /I"C:\Cocos\frameworks\cocos2d-x-3.5\extensions" /I..\Classes /I.. /I"C:\Cocos\frameworks\cocos2d-x-3.5\cocos\2d\..\..\cocos\editor-support" /I"C:\Cocos\frameworks\cocos2d-x-3.5\cocos\2d\..\..\cocos" /I"C:\Cocos\frameworks\cocos2d-x-3.5\cocos\2d\..\..\cocos\platform" /I"C:\Cocos\frameworks\cocos2d-x-3.5\cocos\2d\..\..\cocos\platform\desktop" /I"C:\Cocos\frameworks\cocos2d-x-3.5\cocos\2d\..\..\external\glfw3\include\win32" /I"C:\Cocos\frameworks\cocos2d-x-3.5\cocos\2d\..\..\external\win32-specific\gles\include\OGLES" /Zi /nologo /W3 /WX- /O2 /Oi /Oy- /GL /D WIN32 /D NDEBUG /D _WINDOWS /D _USE_MATH_DEFINES /D GL_GLEXT_PROTOTYPES /D CC_ENABLE_CHIPMUNK_INTEGRATION=1 /D _CRT_SECURE_NO_WARNINGS /D _SCL_SECURE_NO_WARNINGS /D COCOS2D_DEBUG=1 /D _VARIADIC_MAX=10 /D _UNICODE /D UNICODE /Gm- /EHsc /MD /GS /Gy /fp:precise /Zc:wchar_t /Zc:forScope /Fo"RELEASE.WIN32\\" /Fd"RELEASE.WIN32\VC120.PDB" /Gd /TP /wd4267 /wd4251 /wd4244 /analyze- D:\CHOCODICO\SCENE_WORLD\CLASSES\SCENEPOPGAME_2.CPP
^D:\CHOCODICO\SCENE_WORLD\CLASSES\SCENEGAME_2_2_1.CPP
/c /I"C:\Cocos\frameworks\cocos2d-x-3.5\cocos\audio\include" /I"C:\Cocos\frameworks\cocos2d-x-3.5\external" /I"C:\Cocos\frameworks\cocos2d-x-3.5\external\chipmunk\include\chipmunk" /I"C:\Cocos\frameworks\cocos2d-x-3.5\extensions" /I..\Classes /I.. /I"C:\Cocos\frameworks\cocos2d-x-3.5\cocos\2d\..\..\cocos\editor-support" /I"C:\Cocos\frameworks\cocos2d-x-3.5\cocos\2d\..\..\cocos" /I"C:\Cocos\frameworks\cocos2d-x-3.5\cocos\2d\..\..\cocos\platform" /I"C:\Cocos\frameworks\cocos2d-x-3.5\cocos\2d\..\..\cocos\platform\desktop" /I"C:\Cocos\frameworks\cocos2d-x-3.5\cocos\2d\..\..\external\glfw3\include\win32" /I"C:\Cocos\frameworks\cocos2d-x-3.5\cocos\2d\..\..\external\win32-specific\gles\include\OGLES" /Zi /nologo /W3 /WX- /O2 /Oi /Oy- /GL /D WIN32 /D NDEBUG /D _WINDOWS /D _USE_MATH_DEFINES /D GL_GLEXT_PROTOTYPES /D CC_ENABLE_CHIPMUNK_INTEGRATION=1 /D _CRT_SECURE_NO_WARNINGS /D _SCL_SECURE_NO_WARNINGS /D COCOS2D_DEBUG=1 /D _VARIADIC_MAX=10 /D _UNICODE /D UNICODE /Gm- /EHsc /MD /GS /Gy /fp:precise /Zc:wchar_t /Zc:forScope /Fo"RELEASE.WIN32\\" /Fd"RELEASE.WIN32\VC120.PDB" /Gd /TP /wd4267 /wd4251 /wd4244 /analyze- D:\CHOCODICO\SCENE_WORLD\CLASSES\SCENEGAME_2_2_1.CPP
^D:\CHOCODICO\SCENE_WORLD\CLASSES\SCENEPROLOGUE_2.CPP
/c /I"C:\Cocos\frameworks\cocos2d-x-3.5\cocos\audio\include" /I"C:\Cocos\frameworks\cocos2d-x-3.5\external" /I"C:\Cocos\frameworks\cocos2d-x-3.5\external\chipmunk\include\chipmunk" /I"C:\Cocos\frameworks\cocos2d-x-3.5\extensions" /I..\Classes /I.. /I"C:\Cocos\frameworks\cocos2d-x-3.5\cocos\2d\..\..\cocos\editor-support" /I"C:\Cocos\frameworks\cocos2d-x-3.5\cocos\2d\..\..\cocos" /I"C:\Cocos\frameworks\cocos2d-x-3.5\cocos\2d\..\..\cocos\platform" /I"C:\Cocos\frameworks\cocos2d-x-3.5\cocos\2d\..\..\cocos\platform\desktop" /I"C:\Cocos\frameworks\cocos2d-x-3.5\cocos\2d\..\..\external\glfw3\include\win32" /I"C:\Cocos\frameworks\cocos2d-x-3.5\cocos\2d\..\..\external\win32-specific\gles\include\OGLES" /Zi /nologo /W3 /WX- /O2 /Oi /Oy- /GL /D WIN32 /D NDEBUG /D _WINDOWS /D _USE_MATH_DEFINES /D GL_GLEXT_PROTOTYPES /D CC_ENABLE_CHIPMUNK_INTEGRATION=1 /D _CRT_SECURE_NO_WARNINGS /D _SCL_SECURE_NO_WARNINGS /D COCOS2D_DEBUG=1 /D _VARIADIC_MAX=10 /D _UNICODE /D UNICODE /Gm- /EHsc /MD /GS /Gy /fp:precise /Zc:wchar_t /Zc:forScope /Fo"RELEASE.WIN32\\" /Fd"RELEASE.WIN32\VC120.PDB" /Gd /TP /wd4267 /wd4251 /wd4244 /analyze- D:\CHOCODICO\SCENE_WORLD\CLASSES\SCENEPROLOGUE_2.CPP
^D:\CHOCODICO\SCENE_WORLD\CLASSES\SCENEPROLOGUE_3.CPP
/c /I"C:\Cocos\frameworks\cocos2d-x-3.5\cocos\audio\include" /I"C:\Cocos\frameworks\cocos2d-x-3.5\external" /I"C:\Cocos\frameworks\cocos2d-x-3.5\external\chipmunk\include\chipmunk" /I"C:\Cocos\frameworks\cocos2d-x-3.5\extensions" /I..\Classes /I.. /I"C:\Cocos\frameworks\cocos2d-x-3.5\cocos\2d\..\..\cocos\editor-support" /I"C:\Cocos\frameworks\cocos2d-x-3.5\cocos\2d\..\..\cocos" /I"C:\Cocos\frameworks\cocos2d-x-3.5\cocos\2d\..\..\cocos\platform" /I"C:\Cocos\frameworks\cocos2d-x-3.5\cocos\2d\..\..\cocos\platform\desktop" /I"C:\Cocos\frameworks\cocos2d-x-3.5\cocos\2d\..\..\external\glfw3\include\win32" /I"C:\Cocos\frameworks\cocos2d-x-3.5\cocos\2d\..\..\external\win32-specific\gles\include\OGLES" /Zi /nologo /W3 /WX- /O2 /Oi /Oy- /GL /D WIN32 /D NDEBUG /D _WINDOWS /D _USE_MATH_DEFINES /D GL_GLEXT_PROTOTYPES /D CC_ENABLE_CHIPMUNK_INTEGRATION=1 /D _CRT_SECURE_NO_WARNINGS /D _SCL_SECURE_NO_WARNINGS /D COCOS2D_DEBUG=1 /D _VARIADIC_MAX=10 /D _UNICODE /D UNICODE /Gm- /EHsc /MD /GS /Gy /fp:precise /Zc:wchar_t /Zc:forScope /Fo"RELEASE.WIN32\\" /Fd"RELEASE.WIN32\VC120.PDB" /Gd /TP /wd4267 /wd4251 /wd4244 /analyze- D:\CHOCODICO\SCENE_WORLD\CLASSES\SCENEPROLOGUE_3.CPP
^D:\CHOCODICO\SCENE_WORLD\CLASSES\SCENESTAGE_1.CPP
/c /I"C:\Cocos\frameworks\cocos2d-x-3.5\cocos\audio\include" /I"C:\Cocos\frameworks\cocos2d-x-3.5\external" /I"C:\Cocos\frameworks\cocos2d-x-3.5\external\chipmunk\include\chipmunk" /I"C:\Cocos\frameworks\cocos2d-x-3.5\extensions" /I..\Classes /I.. /I"C:\Cocos\frameworks\cocos2d-x-3.5\cocos\2d\..\..\cocos\editor-support" /I"C:\Cocos\frameworks\cocos2d-x-3.5\cocos\2d\..\..\cocos" /I"C:\Cocos\frameworks\cocos2d-x-3.5\cocos\2d\..\..\cocos\platform" /I"C:\Cocos\frameworks\cocos2d-x-3.5\cocos\2d\..\..\cocos\platform\desktop" /I"C:\Cocos\frameworks\cocos2d-x-3.5\cocos\2d\..\..\external\glfw3\include\win32" /I"C:\Cocos\frameworks\cocos2d-x-3.5\cocos\2d\..\..\external\win32-specific\gles\include\OGLES" /Zi /nologo /W3 /WX- /O2 /Oi /Oy- /GL /D WIN32 /D NDEBUG /D _WINDOWS /D _USE_MATH_DEFINES /D GL_GLEXT_PROTOTYPES /D CC_ENABLE_CHIPMUNK_INTEGRATION=1 /D _CRT_SECURE_NO_WARNINGS /D _SCL_SECURE_NO_WARNINGS /D COCOS2D_DEBUG=1 /D _VARIADIC_MAX=10 /D _UNICODE /D UNICODE /Gm- /EHsc /MD /GS /Gy /fp:precise /Zc:wchar_t /Zc:forScope /Fo"RELEASE.WIN32\\" /Fd"RELEASE.WIN32\VC120.PDB" /Gd /TP /wd4267 /wd4251 /wd4244 /analyze- D:\CHOCODICO\SCENE_WORLD\CLASSES\SCENESTAGE_1.CPP
^D:\CHOCODICO\SCENE_WORLD\CLASSES\SCENEPROLOGUE_1.CPP
/c /I"C:\Cocos\frameworks\cocos2d-x-3.5\cocos\audio\include" /I"C:\Cocos\frameworks\cocos2d-x-3.5\external" /I"C:\Cocos\frameworks\cocos2d-x-3.5\external\chipmunk\include\chipmunk" /I"C:\Cocos\frameworks\cocos2d-x-3.5\extensions" /I..\Classes /I.. /I"C:\Cocos\frameworks\cocos2d-x-3.5\cocos\2d\..\..\cocos\editor-support" /I"C:\Cocos\frameworks\cocos2d-x-3.5\cocos\2d\..\..\cocos" /I"C:\Cocos\frameworks\cocos2d-x-3.5\cocos\2d\..\..\cocos\platform" /I"C:\Cocos\frameworks\cocos2d-x-3.5\cocos\2d\..\..\cocos\platform\desktop" /I"C:\Cocos\frameworks\cocos2d-x-3.5\cocos\2d\..\..\external\glfw3\include\win32" /I"C:\Cocos\frameworks\cocos2d-x-3.5\cocos\2d\..\..\external\win32-specific\gles\include\OGLES" /Zi /nologo /W3 /WX- /O2 /Oi /Oy- /GL /D WIN32 /D NDEBUG /D _WINDOWS /D _USE_MATH_DEFINES /D GL_GLEXT_PROTOTYPES /D CC_ENABLE_CHIPMUNK_INTEGRATION=1 /D _CRT_SECURE_NO_WARNINGS /D _SCL_SECURE_NO_WARNINGS /D COCOS2D_DEBUG=1 /D _VARIADIC_MAX=10 /D _UNICODE /D UNICODE /Gm- /EHsc /MD /GS /Gy /fp:precise /Zc:wchar_t /Zc:forScope /Fo"RELEASE.WIN32\\" /Fd"RELEASE.WIN32\VC120.PDB" /Gd /TP /wd4267 /wd4251 /wd4244 /analyze- D:\CHOCODICO\SCENE_WORLD\CLASSES\SCENEPROLOGUE_1.CPP
^D:\CHOCODICO\SCENE_WORLD\CLASSES\SCENESTAGE_2.CPP
/c /I"C:\Cocos\frameworks\cocos2d-x-3.5\cocos\audio\include" /I"C:\Cocos\frameworks\cocos2d-x-3.5\external" /I"C:\Cocos\frameworks\cocos2d-x-3.5\external\chipmunk\include\chipmunk" /I"C:\Cocos\frameworks\cocos2d-x-3.5\extensions" /I..\Classes /I.. /I"C:\Cocos\frameworks\cocos2d-x-3.5\cocos\2d\..\..\cocos\editor-support" /I"C:\Cocos\frameworks\cocos2d-x-3.5\cocos\2d\..\..\cocos" /I"C:\Cocos\frameworks\cocos2d-x-3.5\cocos\2d\..\..\cocos\platform" /I"C:\Cocos\frameworks\cocos2d-x-3.5\cocos\2d\..\..\cocos\platform\desktop" /I"C:\Cocos\frameworks\cocos2d-x-3.5\cocos\2d\..\..\external\glfw3\include\win32" /I"C:\Cocos\frameworks\cocos2d-x-3.5\cocos\2d\..\..\external\win32-specific\gles\include\OGLES" /Zi /nologo /W3 /WX- /O2 /Oi /Oy- /GL /D WIN32 /D NDEBUG /D _WINDOWS /D _USE_MATH_DEFINES /D GL_GLEXT_PROTOTYPES /D CC_ENABLE_CHIPMUNK_INTEGRATION=1 /D _CRT_SECURE_NO_WARNINGS /D _SCL_SECURE_NO_WARNINGS /D COCOS2D_DEBUG=1 /D _VARIADIC_MAX=10 /D _UNICODE /D UNICODE /Gm- /EHsc /MD /GS /Gy /fp:precise /Zc:wchar_t /Zc:forScope /Fo"RELEASE.WIN32\\" /Fd"RELEASE.WIN32\VC120.PDB" /Gd /TP /wd4267 /wd4251 /wd4244 /analyze- D:\CHOCODICO\SCENE_WORLD\CLASSES\SCENESTAGE_2.CPP
^D:\CHOCODICO\SCENE_WORLD\CLASSES\SCENEGAME_2_1.CPP
/c /I"C:\Cocos\frameworks\cocos2d-x-3.5\cocos\audio\include" /I"C:\Cocos\frameworks\cocos2d-x-3.5\external" /I"C:\Cocos\frameworks\cocos2d-x-3.5\external\chipmunk\include\chipmunk" /I"C:\Cocos\frameworks\cocos2d-x-3.5\extensions" /I..\Classes /I.. /I"C:\Cocos\frameworks\cocos2d-x-3.5\cocos\2d\..\..\cocos\editor-support" /I"C:\Cocos\frameworks\cocos2d-x-3.5\cocos\2d\..\..\cocos" /I"C:\Cocos\frameworks\cocos2d-x-3.5\cocos\2d\..\..\cocos\platform" /I"C:\Cocos\frameworks\cocos2d-x-3.5\cocos\2d\..\..\cocos\platform\desktop" /I"C:\Cocos\frameworks\cocos2d-x-3.5\cocos\2d\..\..\external\glfw3\include\win32" /I"C:\Cocos\frameworks\cocos2d-x-3.5\cocos\2d\..\..\external\win32-specific\gles\include\OGLES" /Zi /nologo /W3 /WX- /O2 /Oi /Oy- /GL /D WIN32 /D NDEBUG /D _WINDOWS /D _USE_MATH_DEFINES /D GL_GLEXT_PROTOTYPES /D CC_ENABLE_CHIPMUNK_INTEGRATION=1 /D _CRT_SECURE_NO_WARNINGS /D _SCL_SECURE_NO_WARNINGS /D COCOS2D_DEBUG=1 /D _VARIADIC_MAX=10 /D _UNICODE /D UNICODE /Gm- /EHsc /MD /GS /Gy /fp:precise /Zc:wchar_t /Zc:forScope /Fo"RELEASE.WIN32\\" /Fd"RELEASE.WIN32\VC120.PDB" /Gd /TP /wd4267 /wd4251 /wd4244 /analyze- D:\CHOCODICO\SCENE_WORLD\CLASSES\SCENEGAME_2_1.CPP
^D:\CHOCODICO\SCENE_WORLD\CLASSES\SCENEGAME_2_1_1.CPP
/c /I"C:\Cocos\frameworks\cocos2d-x-3.5\cocos\audio\include" /I"C:\Cocos\frameworks\cocos2d-x-3.5\external" /I"C:\Cocos\frameworks\cocos2d-x-3.5\external\chipmunk\include\chipmunk" /I"C:\Cocos\frameworks\cocos2d-x-3.5\extensions" /I..\Classes /I.. /I"C:\Cocos\frameworks\cocos2d-x-3.5\cocos\2d\..\..\cocos\editor-support" /I"C:\Cocos\frameworks\cocos2d-x-3.5\cocos\2d\..\..\cocos" /I"C:\Cocos\frameworks\cocos2d-x-3.5\cocos\2d\..\..\cocos\platform" /I"C:\Cocos\frameworks\cocos2d-x-3.5\cocos\2d\..\..\cocos\platform\desktop" /I"C:\Cocos\frameworks\cocos2d-x-3.5\cocos\2d\..\..\external\glfw3\include\win32" /I"C:\Cocos\frameworks\cocos2d-x-3.5\cocos\2d\..\..\external\win32-specific\gles\include\OGLES" /Zi /nologo /W3 /WX- /O2 /Oi /Oy- /GL /D WIN32 /D NDEBUG /D _WINDOWS /D _USE_MATH_DEFINES /D GL_GLEXT_PROTOTYPES /D CC_ENABLE_CHIPMUNK_INTEGRATION=1 /D _CRT_SECURE_NO_WARNINGS /D _SCL_SECURE_NO_WARNINGS /D COCOS2D_DEBUG=1 /D _VARIADIC_MAX=10 /D _UNICODE /D UNICODE /Gm- /EHsc /MD /GS /Gy /fp:precise /Zc:wchar_t /Zc:forScope /Fo"RELEASE.WIN32\\" /Fd"RELEASE.WIN32\VC120.PDB" /Gd /TP /wd4267 /wd4251 /wd4244 /analyze- D:\CHOCODICO\SCENE_WORLD\CLASSES\SCENEGAME_2_1_1.CPP
^D:\CHOCODICO\SCENE_WORLD\CLASSES\SCENEGAME_2_1_2.CPP
/c /I"C:\Cocos\frameworks\cocos2d-x-3.5\cocos\audio\include" /I"C:\Cocos\frameworks\cocos2d-x-3.5\external" /I"C:\Cocos\frameworks\cocos2d-x-3.5\external\chipmunk\include\chipmunk" /I"C:\Cocos\frameworks\cocos2d-x-3.5\extensions" /I..\Classes /I.. /I"C:\Cocos\frameworks\cocos2d-x-3.5\cocos\2d\..\..\cocos\editor-support" /I"C:\Cocos\frameworks\cocos2d-x-3.5\cocos\2d\..\..\cocos" /I"C:\Cocos\frameworks\cocos2d-x-3.5\cocos\2d\..\..\cocos\platform" /I"C:\Cocos\frameworks\cocos2d-x-3.5\cocos\2d\..\..\cocos\platform\desktop" /I"C:\Cocos\frameworks\cocos2d-x-3.5\cocos\2d\..\..\external\glfw3\include\win32" /I"C:\Cocos\frameworks\cocos2d-x-3.5\cocos\2d\..\..\external\win32-specific\gles\include\OGLES" /Zi /nologo /W3 /WX- /O2 /Oi /Oy- /GL /D WIN32 /D NDEBUG /D _WINDOWS /D _USE_MATH_DEFINES /D GL_GLEXT_PROTOTYPES /D CC_ENABLE_CHIPMUNK_INTEGRATION=1 /D _CRT_SECURE_NO_WARNINGS /D _SCL_SECURE_NO_WARNINGS /D COCOS2D_DEBUG=1 /D _VARIADIC_MAX=10 /D _UNICODE /D UNICODE /Gm- /EHsc /MD /GS /Gy /fp:precise /Zc:wchar_t /Zc:forScope /Fo"RELEASE.WIN32\\" /Fd"RELEASE.WIN32\VC120.PDB" /Gd /TP /wd4267 /wd4251 /wd4244 /analyze- D:\CHOCODICO\SCENE_WORLD\CLASSES\SCENEGAME_2_1_2.CPP
^D:\CHOCODICO\SCENE_WORLD\CLASSES\SCENESTAGE_3.CPP
/c /I"C:\Cocos\frameworks\cocos2d-x-3.5\cocos\audio\include" /I"C:\Cocos\frameworks\cocos2d-x-3.5\external" /I"C:\Cocos\frameworks\cocos2d-x-3.5\external\chipmunk\include\chipmunk" /I"C:\Cocos\frameworks\cocos2d-x-3.5\extensions" /I..\Classes /I.. /I"C:\Cocos\frameworks\cocos2d-x-3.5\cocos\2d\..\..\cocos\editor-support" /I"C:\Cocos\frameworks\cocos2d-x-3.5\cocos\2d\..\..\cocos" /I"C:\Cocos\frameworks\cocos2d-x-3.5\cocos\2d\..\..\cocos\platform" /I"C:\Cocos\frameworks\cocos2d-x-3.5\cocos\2d\..\..\cocos\platform\desktop" /I"C:\Cocos\frameworks\cocos2d-x-3.5\cocos\2d\..\..\external\glfw3\include\win32" /I"C:\Cocos\frameworks\cocos2d-x-3.5\cocos\2d\..\..\external\win32-specific\gles\include\OGLES" /Zi /nologo /W3 /WX- /O2 /Oi /Oy- /GL /D WIN32 /D NDEBUG /D _WINDOWS /D _USE_MATH_DEFINES /D GL_GLEXT_PROTOTYPES /D CC_ENABLE_CHIPMUNK_INTEGRATION=1 /D _CRT_SECURE_NO_WARNINGS /D _SCL_SECURE_NO_WARNINGS /D COCOS2D_DEBUG=1 /D _VARIADIC_MAX=10 /D _UNICODE /D UNICODE /Gm- /EHsc /MD /GS /Gy /fp:precise /Zc:wchar_t /Zc:forScope /Fo"RELEASE.WIN32\\" /Fd"RELEASE.WIN32\VC120.PDB" /Gd /TP /wd4267 /wd4251 /wd4244 /analyze- D:\CHOCODICO\SCENE_WORLD\CLASSES\SCENESTAGE_3.CPP
^D:\CHOCODICO\SCENE_WORLD\CLASSES\SCENETITLE.CPP
/c /I"C:\Cocos\frameworks\cocos2d-x-3.5\cocos\audio\include" /I"C:\Cocos\frameworks\cocos2d-x-3.5\external" /I"C:\Cocos\frameworks\cocos2d-x-3.5\external\chipmunk\include\chipmunk" /I"C:\Cocos\frameworks\cocos2d-x-3.5\extensions" /I..\Classes /I.. /I"C:\Cocos\frameworks\cocos2d-x-3.5\cocos\2d\..\..\cocos\editor-support" /I"C:\Cocos\frameworks\cocos2d-x-3.5\cocos\2d\..\..\cocos" /I"C:\Cocos\frameworks\cocos2d-x-3.5\cocos\2d\..\..\cocos\platform" /I"C:\Cocos\frameworks\cocos2d-x-3.5\cocos\2d\..\..\cocos\platform\desktop" /I"C:\Cocos\frameworks\cocos2d-x-3.5\cocos\2d\..\..\external\glfw3\include\win32" /I"C:\Cocos\frameworks\cocos2d-x-3.5\cocos\2d\..\..\external\win32-specific\gles\include\OGLES" /Zi /nologo /W3 /WX- /O2 /Oi /Oy- /GL /D WIN32 /D NDEBUG /D _WINDOWS /D _USE_MATH_DEFINES /D GL_GLEXT_PROTOTYPES /D CC_ENABLE_CHIPMUNK_INTEGRATION=1 /D _CRT_SECURE_NO_WARNINGS /D _SCL_SECURE_NO_WARNINGS /D COCOS2D_DEBUG=1 /D _VARIADIC_MAX=10 /D _UNICODE /D UNICODE /Gm- /EHsc /MD /GS /Gy /fp:precise /Zc:wchar_t /Zc:forScope /Fo"RELEASE.WIN32\\" /Fd"RELEASE.WIN32\VC120.PDB" /Gd /TP /wd4267 /wd4251 /wd4244 /analyze- D:\CHOCODICO\SCENE_WORLD\CLASSES\SCENETITLE.CPP
^D:\CHOCODICO\SCENE_WORLD\CLASSES\STAR.CPP
/c /I"C:\Cocos\frameworks\cocos2d-x-3.5\cocos\audio\include" /I"C:\Cocos\frameworks\cocos2d-x-3.5\external" /I"C:\Cocos\frameworks\cocos2d-x-3.5\external\chipmunk\include\chipmunk" /I"C:\Cocos\frameworks\cocos2d-x-3.5\extensions" /I..\Classes /I.. /I"C:\Cocos\frameworks\cocos2d-x-3.5\cocos\2d\..\..\cocos\editor-support" /I"C:\Cocos\frameworks\cocos2d-x-3.5\cocos\2d\..\..\cocos" /I"C:\Cocos\frameworks\cocos2d-x-3.5\cocos\2d\..\..\cocos\platform" /I"C:\Cocos\frameworks\cocos2d-x-3.5\cocos\2d\..\..\cocos\platform\desktop" /I"C:\Cocos\frameworks\cocos2d-x-3.5\cocos\2d\..\..\external\glfw3\include\win32" /I"C:\Cocos\frameworks\cocos2d-x-3.5\cocos\2d\..\..\external\win32-specific\gles\include\OGLES" /Zi /nologo /W3 /WX- /O2 /Oi /Oy- /GL /D WIN32 /D NDEBUG /D _WINDOWS /D _USE_MATH_DEFINES /D GL_GLEXT_PROTOTYPES /D CC_ENABLE_CHIPMUNK_INTEGRATION=1 /D _CRT_SECURE_NO_WARNINGS /D _SCL_SECURE_NO_WARNINGS /D COCOS2D_DEBUG=1 /D _VARIADIC_MAX=10 /D _UNICODE /D UNICODE /Gm- /EHsc /MD /GS /Gy /fp:precise /Zc:wchar_t /Zc:forScope /Fo"RELEASE.WIN32\\" /Fd"RELEASE.WIN32\VC120.PDB" /Gd /TP /wd4267 /wd4251 /wd4244 /analyze- D:\CHOCODICO\SCENE_WORLD\CLASSES\STAR.CPP
^D:\CHOCODICO\SCENE_WORLD\PROJ.WIN32\MAIN.CPP
/c /I"C:\Cocos\frameworks\cocos2d-x-3.5\cocos\audio\include" /I"C:\Cocos\frameworks\cocos2d-x-3.5\external" /I"C:\Cocos\frameworks\cocos2d-x-3.5\external\chipmunk\include\chipmunk" /I"C:\Cocos\frameworks\cocos2d-x-3.5\extensions" /I..\Classes /I.. /I"C:\Cocos\frameworks\cocos2d-x-3.5\cocos\2d\..\..\cocos\editor-support" /I"C:\Cocos\frameworks\cocos2d-x-3.5\cocos\2d\..\..\cocos" /I"C:\Cocos\frameworks\cocos2d-x-3.5\cocos\2d\..\..\cocos\platform" /I"C:\Cocos\frameworks\cocos2d-x-3.5\cocos\2d\..\..\cocos\platform\desktop" /I"C:\Cocos\frameworks\cocos2d-x-3.5\cocos\2d\..\..\external\glfw3\include\win32" /I"C:\Cocos\frameworks\cocos2d-x-3.5\cocos\2d\..\..\external\win32-specific\gles\include\OGLES" /Zi /nologo /W3 /WX- /O2 /Oi /Oy- /GL /D WIN32 /D NDEBUG /D _WINDOWS /D _USE_MATH_DEFINES /D GL_GLEXT_PROTOTYPES /D CC_ENABLE_CHIPMUNK_INTEGRATION=1 /D _CRT_SECURE_NO_WARNINGS /D _SCL_SECURE_NO_WARNINGS /D COCOS2D_DEBUG=1 /D _VARIADIC_MAX=10 /D _UNICODE /D UNICODE /Gm- /EHsc /MD /GS /Gy /fp:precise /Zc:wchar_t /Zc:forScope /Fo"RELEASE.WIN32\\" /Fd"RELEASE.WIN32\VC120.PDB" /Gd /TP /wd4267 /wd4251 /wd4244 /analyze- D:\CHOCODICO\SCENE_WORLD\PROJ.WIN32\MAIN.CPP
^D:\CHOCODICO\SCENE_WORLD\CLASSES\SCENEGAME_3_3_1.CPP
/c /I"C:\Cocos\frameworks\cocos2d-x-3.5\cocos\audio\include" /I"C:\Cocos\frameworks\cocos2d-x-3.5\external" /I"C:\Cocos\frameworks\cocos2d-x-3.5\external\chipmunk\include\chipmunk" /I"C:\Cocos\frameworks\cocos2d-x-3.5\extensions" /I..\Classes /I.. /I"C:\Cocos\frameworks\cocos2d-x-3.5\cocos\2d\..\..\cocos\editor-support" /I"C:\Cocos\frameworks\cocos2d-x-3.5\cocos\2d\..\..\cocos" /I"C:\Cocos\frameworks\cocos2d-x-3.5\cocos\2d\..\..\cocos\platform" /I"C:\Cocos\frameworks\cocos2d-x-3.5\cocos\2d\..\..\cocos\platform\desktop" /I"C:\Cocos\frameworks\cocos2d-x-3.5\cocos\2d\..\..\external\glfw3\include\win32" /I"C:\Cocos\frameworks\cocos2d-x-3.5\cocos\2d\..\..\external\win32-specific\gles\include\OGLES" /Zi /nologo /W3 /WX- /O2 /Oi /Oy- /GL /D WIN32 /D NDEBUG /D _WINDOWS /D _USE_MATH_DEFINES /D GL_GLEXT_PROTOTYPES /D CC_ENABLE_CHIPMUNK_INTEGRATION=1 /D _CRT_SECURE_NO_WARNINGS /D _SCL_SECURE_NO_WARNINGS /D COCOS2D_DEBUG=1 /D _VARIADIC_MAX=10 /D _UNICODE /D UNICODE /Gm- /EHsc /MD /GS /Gy /fp:precise /Zc:wchar_t /Zc:forScope /Fo"RELEASE.WIN32\\" /Fd"RELEASE.WIN32\VC120.PDB" /Gd /TP /wd4267 /wd4251 /wd4244 /analyze- D:\CHOCODICO\SCENE_WORLD\CLASSES\SCENEGAME_3_3_1.CPP
^D:\CHOCODICO\SCENE_WORLD\CLASSES\SCENEGAME_3_3_2.CPP
/c /I"C:\Cocos\frameworks\cocos2d-x-3.5\cocos\audio\include" /I"C:\Cocos\frameworks\cocos2d-x-3.5\external" /I"C:\Cocos\frameworks\cocos2d-x-3.5\external\chipmunk\include\chipmunk" /I"C:\Cocos\frameworks\cocos2d-x-3.5\extensions" /I..\Classes /I.. /I"C:\Cocos\frameworks\cocos2d-x-3.5\cocos\2d\..\..\cocos\editor-support" /I"C:\Cocos\frameworks\cocos2d-x-3.5\cocos\2d\..\..\cocos" /I"C:\Cocos\frameworks\cocos2d-x-3.5\cocos\2d\..\..\cocos\platform" /I"C:\Cocos\frameworks\cocos2d-x-3.5\cocos\2d\..\..\cocos\platform\desktop" /I"C:\Cocos\frameworks\cocos2d-x-3.5\cocos\2d\..\..\external\glfw3\include\win32" /I"C:\Cocos\frameworks\cocos2d-x-3.5\cocos\2d\..\..\external\win32-specific\gles\include\OGLES" /Zi /nologo /W3 /WX- /O2 /Oi /Oy- /GL /D WIN32 /D NDEBUG /D _WINDOWS /D _USE_MATH_DEFINES /D GL_GLEXT_PROTOTYPES /D CC_ENABLE_CHIPMUNK_INTEGRATION=1 /D _CRT_SECURE_NO_WARNINGS /D _SCL_SECURE_NO_WARNINGS /D COCOS2D_DEBUG=1 /D _VARIADIC_MAX=10 /D _UNICODE /D UNICODE /Gm- /EHsc /MD /GS /Gy /fp:precise /Zc:wchar_t /Zc:forScope /Fo"RELEASE.WIN32\\" /Fd"RELEASE.WIN32\VC120.PDB" /Gd /TP /wd4267 /wd4251 /wd4244 /analyze- D:\CHOCODICO\SCENE_WORLD\CLASSES\SCENEGAME_3_3_2.CPP
^D:\CHOCODICO\SCENE_WORLD\CLASSES\SCENEGAME_4_1.CPP
/c /I"C:\Cocos\frameworks\cocos2d-x-3.5\cocos\audio\include" /I"C:\Cocos\frameworks\cocos2d-x-3.5\external" /I"C:\Cocos\frameworks\cocos2d-x-3.5\external\chipmunk\include\chipmunk" /I"C:\Cocos\frameworks\cocos2d-x-3.5\extensions" /I..\Classes /I.. /I"C:\Cocos\frameworks\cocos2d-x-3.5\cocos\2d\..\..\cocos\editor-support" /I"C:\Cocos\frameworks\cocos2d-x-3.5\cocos\2d\..\..\cocos" /I"C:\Cocos\frameworks\cocos2d-x-3.5\cocos\2d\..\..\cocos\platform" /I"C:\Cocos\frameworks\cocos2d-x-3.5\cocos\2d\..\..\cocos\platform\desktop" /I"C:\Cocos\frameworks\cocos2d-x-3.5\cocos\2d\..\..\external\glfw3\include\win32" /I"C:\Cocos\frameworks\cocos2d-x-3.5\cocos\2d\..\..\external\win32-specific\gles\include\OGLES" /Zi /nologo /W3 /WX- /O2 /Oi /Oy- /GL /D WIN32 /D NDEBUG /D _WINDOWS /D _USE_MATH_DEFINES /D GL_GLEXT_PROTOTYPES /D CC_ENABLE_CHIPMUNK_INTEGRATION=1 /D _CRT_SECURE_NO_WARNINGS /D _SCL_SECURE_NO_WARNINGS /D COCOS2D_DEBUG=1 /D _VARIADIC_MAX=10 /D _UNICODE /D UNICODE /Gm- /EHsc /MD /GS /Gy /fp:precise /Zc:wchar_t /Zc:forScope /Fo"RELEASE.WIN32\\" /Fd"RELEASE.WIN32\VC120.PDB" /Gd /TP /wd4267 /wd4251 /wd4244 /analyze- D:\CHOCODICO\SCENE_WORLD\CLASSES\SCENEGAME_4_1.CPP
^D:\CHOCODICO\SCENE_WORLD\CLASSES\SCENEPROLOGUE_4.CPP
/c /I"C:\Cocos\frameworks\cocos2d-x-3.5\cocos\audio\include" /I"C:\Cocos\frameworks\cocos2d-x-3.5\external" /I"C:\Cocos\frameworks\cocos2d-x-3.5\external\chipmunk\include\chipmunk" /I"C:\Cocos\frameworks\cocos2d-x-3.5\extensions" /I..\Classes /I.. /I"C:\Cocos\frameworks\cocos2d-x-3.5\cocos\2d\..\..\cocos\editor-support" /I"C:\Cocos\frameworks\cocos2d-x-3.5\cocos\2d\..\..\cocos" /I"C:\Cocos\frameworks\cocos2d-x-3.5\cocos\2d\..\..\cocos\platform" /I"C:\Cocos\frameworks\cocos2d-x-3.5\cocos\2d\..\..\cocos\platform\desktop" /I"C:\Cocos\frameworks\cocos2d-x-3.5\cocos\2d\..\..\external\glfw3\include\win32" /I"C:\Cocos\frameworks\cocos2d-x-3.5\cocos\2d\..\..\external\win32-specific\gles\include\OGLES" /Zi /nologo /W3 /WX- /O2 /Oi /Oy- /GL /D WIN32 /D NDEBUG /D _WINDOWS /D _USE_MATH_DEFINES /D GL_GLEXT_PROTOTYPES /D CC_ENABLE_CHIPMUNK_INTEGRATION=1 /D _CRT_SECURE_NO_WARNINGS /D _SCL_SECURE_NO_WARNINGS /D COCOS2D_DEBUG=1 /D _VARIADIC_MAX=10 /D _UNICODE /D UNICODE /Gm- /EHsc /MD /GS /Gy /fp:precise /Zc:wchar_t /Zc:forScope /Fo"RELEASE.WIN32\\" /Fd"RELEASE.WIN32\VC120.PDB" /Gd /TP /wd4267 /wd4251 /wd4244 /analyze- D:\CHOCODICO\SCENE_WORLD\CLASSES\SCENEPROLOGUE_4.CPP
^D:\CHOCODICO\SCENE_WORLD\CLASSES\SCENESTAGE_4.CPP
/c /I"C:\Cocos\frameworks\cocos2d-x-3.5\cocos\audio\include" /I"C:\Cocos\frameworks\cocos2d-x-3.5\external" /I"C:\Cocos\frameworks\cocos2d-x-3.5\external\chipmunk\include\chipmunk" /I"C:\Cocos\frameworks\cocos2d-x-3.5\extensions" /I..\Classes /I.. /I"C:\Cocos\frameworks\cocos2d-x-3.5\cocos\2d\..\..\cocos\editor-support" /I"C:\Cocos\frameworks\cocos2d-x-3.5\cocos\2d\..\..\cocos" /I"C:\Cocos\frameworks\cocos2d-x-3.5\cocos\2d\..\..\cocos\platform" /I"C:\Cocos\frameworks\cocos2d-x-3.5\cocos\2d\..\..\cocos\platform\desktop" /I"C:\Cocos\frameworks\cocos2d-x-3.5\cocos\2d\..\..\external\glfw3\include\win32" /I"C:\Cocos\frameworks\cocos2d-x-3.5\cocos\2d\..\..\external\win32-specific\gles\include\OGLES" /Zi /nologo /W3 /WX- /O2 /Oi /Oy- /GL /D WIN32 /D NDEBUG /D _WINDOWS /D _USE_MATH_DEFINES /D GL_GLEXT_PROTOTYPES /D CC_ENABLE_CHIPMUNK_INTEGRATION=1 /D _CRT_SECURE_NO_WARNINGS /D _SCL_SECURE_NO_WARNINGS /D COCOS2D_DEBUG=1 /D _VARIADIC_MAX=10 /D _UNICODE /D UNICODE /Gm- /EHsc /MD /GS /Gy /fp:precise /Zc:wchar_t /Zc:forScope /Fo"RELEASE.WIN32\\" /Fd"RELEASE.WIN32\VC120.PDB" /Gd /TP /wd4267 /wd4251 /wd4244 /analyze- D:\CHOCODICO\SCENE_WORLD\CLASSES\SCENESTAGE_4.CPP
^D:\CHOCODICO\SCENE_WORLD\CLASSES\SCENEWORLD.CPP
/c /I"C:\Cocos\frameworks\cocos2d-x-3.5\cocos\audio\include" /I"C:\Cocos\frameworks\cocos2d-x-3.5\external" /I"C:\Cocos\frameworks\cocos2d-x-3.5\external\chipmunk\include\chipmunk" /I"C:\Cocos\frameworks\cocos2d-x-3.5\extensions" /I..\Classes /I.. /I"C:\Cocos\frameworks\cocos2d-x-3.5\cocos\2d\..\..\cocos\editor-support" /I"C:\Cocos\frameworks\cocos2d-x-3.5\cocos\2d\..\..\cocos" /I"C:\Cocos\frameworks\cocos2d-x-3.5\cocos\2d\..\..\cocos\platform" /I"C:\Cocos\frameworks\cocos2d-x-3.5\cocos\2d\..\..\cocos\platform\desktop" /I"C:\Cocos\frameworks\cocos2d-x-3.5\cocos\2d\..\..\external\glfw3\include\win32" /I"C:\Cocos\frameworks\cocos2d-x-3.5\cocos\2d\..\..\external\win32-specific\gles\include\OGLES" /Zi /nologo /W3 /WX- /O2 /Oi /Oy- /GL /D WIN32 /D NDEBUG /D _WINDOWS /D _USE_MATH_DEFINES /D GL_GLEXT_PROTOTYPES /D CC_ENABLE_CHIPMUNK_INTEGRATION=1 /D _CRT_SECURE_NO_WARNINGS /D _SCL_SECURE_NO_WARNINGS /D COCOS2D_DEBUG=1 /D _VARIADIC_MAX=10 /D _UNICODE /D UNICODE /Gm- /EHsc /MD /GS /Gy /fp:precise /Zc:wchar_t /Zc:forScope /Fo"RELEASE.WIN32\\" /Fd"RELEASE.WIN32\VC120.PDB" /Gd /TP /wd4267 /wd4251 /wd4244 /analyze- D:\CHOCODICO\SCENE_WORLD\CLASSES\SCENEWORLD.CPP
