^D:\CHOCODICO\SCENE_WORLD\PROJ.WIN32\RELEASE.WIN32\APPDELEGATE.OBJ|D:\CHOCODICO\SCENE_WORLD\PROJ.WIN32\RELEASE.WIN32\BINARY.OBJ|D:\CHOCODICO\SCENE_WORLD\PROJ.WIN32\RELEASE.WIN32\COMMONLIB.OBJ|D:\CHOCODICO\SCENE_WORLD\PROJ.WIN32\RELEASE.WIN32\GAME.RES|D:\CHOCODICO\SCENE_WORLD\PROJ.WIN32\RELEASE.WIN32\MAIN.OBJ|D:\CHOCODICO\SCENE_WORLD\PROJ.WIN32\RELEASE.WIN32\PROBLEM_2_Q1.OBJ|D:\CHOCODICO\SCENE_WORLD\PROJ.WIN32\RELEASE.WIN32\SCENEGAME_1_1.OBJ|D:\CHOCODICO\SCENE_WORLD\PROJ.WIN32\RELEASE.WIN32\SCENEGAME_2_1.OBJ|D:\CHOCODICO\SCENE_WORLD\PROJ.WIN32\RELEASE.WIN32\SCENEGAME_2_1_1.OBJ|D:\CHOCODICO\SCENE_WORLD\PROJ.WIN32\RELEASE.WIN32\SCENEGAME_2_1_2.OBJ|D:\CHOCODICO\SCENE_WORLD\PROJ.WIN32\RELEASE.WIN32\SCENEGAME_2_2_1.OBJ|D:\CHOCODICO\SCENE_WORLD\PROJ.WIN32\RELEASE.WIN32\SCENEGAME_2_2_2.OBJ|D:\CHOCODICO\SCENE_WORLD\PROJ.WIN32\RELEASE.WIN32\SCENEGAME_3_1_1.OBJ|D:\CHOCODICO\SCENE_WORLD\PROJ.WIN32\RELEASE.WIN32\SCENEGAME_3_2.OBJ|D:\CHOCODICO\SCENE_WORLD\PROJ.WIN32\RELEASE.WIN32\SCENEGAME_3_3.OBJ|D:\CHOCODICO\SCENE_WORLD\PROJ.WIN32\RELEASE.WIN32\SCENEPOPGAME_2.OBJ|D:\CHOCODICO\SCENE_WORLD\PROJ.WIN32\RELEASE.WIN32\SCENEPROLOGUE_1.OBJ|D:\CHOCODICO\SCENE_WORLD\PROJ.WIN32\RELEASE.WIN32\SCENEPROLOGUE_2.OBJ|D:\CHOCODICO\SCENE_WORLD\PROJ.WIN32\RELEASE.WIN32\SCENEPROLOGUE_3.OBJ|D:\CHOCODICO\SCENE_WORLD\PROJ.WIN32\RELEASE.WIN32\SCENESTAGE_1.OBJ|D:\CHOCODICO\SCENE_WORLD\PROJ.WIN32\RELEASE.WIN32\SCENESTAGE_2.OBJ|D:\CHOCODICO\SCENE_WORLD\PROJ.WIN32\RELEASE.WIN32\SCENESTAGE_3.OBJ|D:\CHOCODICO\SCENE_WORLD\PROJ.WIN32\RELEASE.WIN32\SCENETITLE.OBJ|D:\CHOCODICO\SCENE_WORLD\PROJ.WIN32\RELEASE.WIN32\SCENEWORLD.OBJ|D:\CHOCODICO\SCENE_WORLD\PROJ.WIN32\RELEASE.WIN32\STAR.OBJ
D:\CHOCODICO\SCENE_WORLD\PROJ.WIN32\RELEASE.WIN32\SCENE_WORLD.EXE
D:\CHOCODICO\SCENE_WORLD\PROJ.WIN32\RELEASE.WIN32\SCENE_WORLD.PDB
