{
      "Script": [
        {
            "LPot": "turtle.png",
            "RPot": "themo.png",
            "BGM": "21",
            "BGIMG": "beach.png"
        },
        {
            "event" : "",
            "next": true,
            "name": "거북이",
            "dialogue": "이걸 어쩌지?"
        },
        {
            "next": true,
            "name": "세모",
            "dialogue": "안녕, 거북아?",
            "event" : ""
        },
        {
            "next": true,
            "name": "거북이",
            "dialogue": "......! 아, 안녕?",
            "event" : ""
        },
        {
            "next": true,
            "name": "거북이",
            "dialogue": "고마워, 세모야. 덕분에 용왕님의 병을 치료할 수 있게 됐어.",
            "event" : ""
        },
        {
            "next": true,
            "name": "세모",
            "dialogue": "앗, 용왕님이 편찮으신거야?",
            "event" : ""
        },
        {
            "next": true,
            "name": "거북이",
            "dialogue": "응. 최근들어 병세가 안좋아지셨어. 맞아, 용왕님께 같이 인사드리러 가지 않을래? 너가 도와줬다는 사실을 알면 기뻐하실거야.",
            "event" : ""
        },
        {
            "next": true,
            "name": "세모",
            "dialogue": "용왕님께? 내가 가도 괜찮을까? ",
            "event" : ""
        },
        {
            "next": true,
            "name": "거북이",
            "dialogue": "물론이지! 저 멀리 대륙으로 가려면 어차피 바다를 건너야 해. 바닷속마을에서 잠시 쉬었다가면 좋을거야.",
            "event" : ""
        },
        {
            "next": true,
            "name": "세모",
            "dialogue": "...그치만, 나는 물 속에서 숨쉬지 못하는 걸?",
            "event" : ""
        },
        {
            "next": true,
            "name": "거북이",
            "dialogue": "걱정 마. 내가 물속에서 숨 쉴 수있도록 마법을 걸어줄게.",
            "event" : ""
        },
        {
            "next": true,
            "name": "세모",
            "dialogue": "응. 고마워.",
            "event" : ""
        },
        {
            "next": true,
            "name": "거북이",
            "dialogue": "자, 그러면 어서 바닷속 마을로 가자.",
            "event" : ""
        },
        {
            "next": false,
            "event": "setProgress",
            "parameter": 25
        }
    ]
}