{
      "Script": [
        {
            "LPot": "themo.png",
            "RPot": "people1.png",
            "BGM": 21,
            "BGIMG": "inChurch.png"
        },
        {
            "event":"",
            "next": true,
            "name": "괴수",
            "dialogue": "으아악! 이대로 봉인 될 순 없다!"
        },
        {
            "next": true,
            "name": "",
            "event": "openSE",
            "parameter": "1",
            "dialogue": ""
        },
        {
            "event":"",
            "next": true,
            "name": "세모",
            "dialogue": "큰일이야! 건물이 무너지고 있어!"
        },
        {
            "event":"",
            "next": true,
            "name": "???",
            "dialogue": "얘야 여긴 너무 위험하단다 어서 나가자꾸나!"
        },
        {
            "event":"",
            "next": true,
            "name": "세모",
            "dialogue": "앗..! 혹시 톰의 아빠인가요?"
        },
        {
            "event":"",
            "next": true,
            "name": "톰의 아버지",
            "dialogue": "그렇단다. 마을 청년들과 지하에 갇혀 있다가 가까스로 나왔는데, 소란스러워서 보니 설마 교주님이 괴수였다니...  어서 가서 마을사람들에게 알려야 해."
        },
        {
            "next": false,
            "event": "setProgress",
            "parameter": 60
        }
    ]
}