{
    "Script": [
        {
            "LPot": "fairy_green.png",
            "RPot": "fairy_red.png",
            "BGM": 21,
            "BGIMG": "outside.png"
        },
        {
            "next": true,
            "name": "사과",
            "event" : "",
            "dialogue": "기계가 동작하기 시작했어!"
        },
        {
            "next": true,
            "name": "라임",
            "event" : "",
            "dialogue": "고마워 세모야. 덕분에 일을 다시 시작할 수 있어."
        },
        {
            "next": true,
            "name": "라임",
            "event" : "",
            "dialogue": "아직 일이 남았으니까. 우리를 도와주려면 다시 말을 걸어줘!"
        },
        {
            "next": false,
            "event": "setProgress",
            "parameter" : 30
        }
    ]
}