{
    "Script": [
        {
            "LPot": "fairy_green.png",
            "RPot": "themo.png",
            "BGM": 21,
            "BGIMG": "outside.png"
        },
        {
            "next": true,
            "event" : "",
            "name": "세모",
            "dialogue": "우와. 작고 귀여운 산타요정이 살고있는 마을이야! 반가워 요정들"
        },
        {
            "next": true,
            "event" : "",
            "name": "라임",
            "dialogue": "귀엽다니 부끄럽다. 안녕 반가워. 내 이름은 옷 색깔을 닮은 라임이야."
        },
        {
            "next": true,
            "event" : "",
            "name": "라임",
            "dialogue": "여기는 어린아이들에게 크리스마스에 줄 선물을 만드는 마을이야."
        },
        {
            "next": true,
            "event" : "",
            "name": "라임",
            "dialogue": "여기는 무슨일로 온거니? 지금은 산타씨가 외출을 가셨지만 돌아와서 너가 여기에 있는 것을 들키면 무서운 산타씨가 널 잡아갈거야."
        },
        {
            "next": true,
            "event" : "",
            "name": "세모",
            "dialogue": "나는 여행을 하고있어. 혹시 얼마전에 이상한 일이 생기지는 않았니? 나는 그런 일을 해결하려고 여행을 하고있거든."
        },
        {
            "next": true,
            "event" : "",
            "name": "라임",
            "dialogue": "그럼 혹시 너가 바로 소문으로만 듣던 용사??!!! "
        },
        {
            "next": true,
            "event" : "",
            "name": "세모",
            "dialogue": "하하. 용사라는 이름은 너무 거창해. 나는 그냥 여행가야."
        },
        {
            "next": true,
            "event" : "",
            "name": "세모",
            "dialogue": "그런데 그게 무슨 소리니? 산타할아버지는 어린아이들에게 선물을 주는 착하신 분 아니었니?"
        },
        {
            "next": true,
            "event": "openImage",
            "parameter": "image1.png",
            "name": "라임",
            "dialogue": "전에는 친절하셨지. 지금은 산타씨가 이상해져서 우리를 도와주질 않아."
        },
        {
            "next": true,
            "event": "openImage",
            "parameter": "image1.png",
            "name": "라임",
            "dialogue": "그래서 공장이 제대로 돌아가질 않는단다. 크리스마스까지 얼마 남지 않았는데 제대로 선물을 만들어서 아이들에게 나눠줄 수 있을지 모르겠어. 걱정이야. 걱정."
        },
        {
            "next": true,
            "event" : "",
            "name": "라임",
            "dialogue":  "혹시 우리를 도와줄 수 있겠니? 몰래 공장으로 들어와서 도와주는 것은 들키지 않을거야. 산타씨는 더이상 공장에 들어오지 않거든."
        },
        {
            "next": true,
            "event" : "",
            "name": "라임",
            "dialogue":  "일단은 크리스마스에 맞춰서 아이들에게 선물을 나눠주어야 하니까 공장을 제대로 돌아가게 해야해."
        },
        {
            "next": true,
            "event" : "",
            "name": "세모",
            "dialogue": "좋아. 그럼 이상해진 산타할아버지에 대한 이야기를 더 해줘."
        },
	{
            "next": true,
            "event" : "",
            "name": "라임",
            "dialogue": "만약 너가 공장일을 도와준다면 산타씨에 대한 이야기와 어디에 있는지에 대해 알려준다고 약속할게."
        },
        {
            "next": false,
            "event": "setProgress",
            "parameter": 10
        }
    ]
}