{
    "Script": [
        {
            "LPot": "writer.png",
            "RPot" : "themo.png",
            "BGM": 21,
            "BGIMG": "inForest.png"
        },
        {
            "next": true,
            "event": "",
            "name": "세모",
            "dialogue": "아저씨 아저씨! 아저씨가 찾는 사람을 알아왔어요! 이름은 다영이예요!"
        },
        {
            "next": true,
            "event": "",
            "name": "오두막에 사는 남자",
            "dialogue": "뭐? 내가 그걸 몰라서 부탁한줄 알아? 그보다 이름은 겔다야. 내 이야깃속에 나오는 인물인데 내가 설마 이름도 모르겠어?"
        },
        {
            "next": true,
            "event": "",
            "name": "세모",
            "dialogue": "……"
        },
        {
            "next": true,
            "event": "",
            "name": "오두막에 사는 남자",
            "dialogue": "다영이든 뭐든, 그 이야기의 주인공을 찾아오란말야."
        },
        {
            "next": true,
            "event": "",
            "name": "세모",
            "dialogue": "어떻게 해야 데려올 수 있을까요? 이곳으로 오려고 하질 않을텐데……"
        },
        {
            "next": true,
            "event": "",
            "name": "오두막에 사는 남자",
            "dialogue": "음…… 집을 찾아보면 흩어진 원고 조각이 있을텐데……"
        },
        {
            "next": false,
            "event": "setProgress",
            "parameter": 40
        }
    ]
}