{
    "Script": [
        {
            "LPot": "themo.png",
            "RPot": "satan.png",
            "BGM": 21,
            "BGIMG": "inCastle.png"
        },
        {
            "next": true,
            "event": "",
            "name": "세모",
            "dialogue": "여기가 마왕의 성이구나. 엄청 크고 으스스하다..."
        },
        {
            "next": true,
            "event": "",
            "name": "???",
            "dialogue": "누구냐. 허락없이 내 성에 들어온 어리석은 녀석은?"
        },
        {
            "next": true,
            "event": "",
            "name": "세모",
            "dialogue": "당신이 마왕인가요?"
        },        
        {
            "next": true,
            "event": "",
            "name": "마왕",
            "dialogue": "그렇다. 곧 온 세상을 어둠에 빠지게 해주마. 으하하하하!"
        },
        {
            "next": true,
            "event": "",
            "name": "세모",
            "dialogue": "가만히 있을 수 없죠. 얌전히 루비안에 봉인되어 주세요!"
        },        
        {
            "next": true,
            "event": "",
            "name": "마왕",
            "dialogue": "어리석구나. 여기까지 들어온 이상 살아 돌아갈 생각은 하지 말아라!"
        },
        {
            "next" : false,
            "event": "startBattle",
            "parameter" : 6
        }
    ]
}