{
      "Script": [
        {
            "LPot": "themo.png",
            "RPot": "people2.png",
            "BGM": 21,
            "BGIMG": "inVillage.png"
        },
        {
            "event":"",
            "next": true,
            "name": "세모",
            "dialogue": "고래님. 이 섬에 내려주시면되요."
        },
        {
            "event":"",
            "next": true,
            "name": "고래",
            "dialogue": "그래. 필요하면 언제든지 불러주거라."
        },
        {
            "event":"",
            "next": true,
            "name": "세모",
            "dialogue": "네. 감사합니다."
        },
        {
            "event":"",
            "next": true,
            "name": "세모",
            "dialogue": "이 마을은 생각보다 조용하네? 딱히 괴수가 있는 것 같지 않아."
        },
        {
            "event":"",
            "next": true,
            "name": "마을 주민",
            "dialogue": "얘, 처음보는 얼굴인 것 같은데 다른 마을에서 왔니?"
        },
        {
            "event":"",
            "next": true,
            "name": "세모",
            "dialogue": "네, 맞아요. 전 세모라고 해요."
        },
        {
            "event": "openImage",
            "parameter": "boss.png",
            "next": true,
            "name": "마을 주민",
            "dialogue": "역시 그랬구나. 세모야, 어서 마을을 떠나는게 좋아. 교주님은 굉장히 상냥한 분이지만 외지인에게는 엄격하단다."
        },
        {
            "event":"",
            "next": true,
            "name": "세모",
            "dialogue": "그렇구나. 나쁜 의도는 없었어요."
        },
        {
            "event":"",
            "next": true,
            "name": "마을 주민",
            "dialogue": "한눈에 봐도 넌 나쁜아이가 아닌걸, 걱정돼서 말해준거야. 그럼 잠시 동안만 우리집에서 쉬었다 가렴."
        },
        {
            "event":"",
            "next": true,
            "name": "세모",
            "dialogue": "감사합니다!"
        },
        {
            "next": false,
            "event": "setProgress",
            "parameter": 5
        }
    ]
}