{
      "Script": [
        {
            "LPot": "turtle.png",
            "RPot": "themo.png",
            "BGM": "21",
            "BGIMG": "inCave.png"
        },
        {
            "next": true,
            "name": "세모",
            "dialogue": "문이 열렸어. 어서 상어를 쫓아가자!",
            "event" : ""
        },
        {
            "next": true,
            "name": "거북이",
            "dialogue": "그래, 이대로라면 용왕님이 위험해!",
            "event" : ""
        },
        {
            "next": false,
            "event": "setProgress",
            "parameter": 70
        }
    ]
}